\relax 
\@writefile{toc}{\contentsline {section}{\numberline {1}Exercise 1}{1}\protected@file@percent }
\@writefile{toc}{\contentsline {section}{\numberline {2}Exercise 2}{1}\protected@file@percent }
\citation{coronado_2017_gesturebased}
\citation{carfi_2018_online}
\citation{ponomareva_2021_grasplook}
\citation{lee_2021_simultaneous}
\citation{wonsick_2021_telemanipulation}
\@writefile{toc}{\contentsline {section}{\numberline {3}Exercise 3}{2}\protected@file@percent }
\citation{a2018_tiago}
\citation{coronado_2017_gesturebased}
\bibstyle{plain}
\bibdata{citations}
\bibcite{a2018_tiago}{1}
\bibcite{carfi_2018_online}{2}
\bibcite{coronado_2017_gesturebased}{3}
\bibcite{lee_2021_simultaneous}{4}
\@writefile{toc}{\contentsline {section}{\numberline {4}Exercise 4}{3}\protected@file@percent }
\@writefile{toc}{\contentsline {section}{\numberline {5}Exercise 5}{3}\protected@file@percent }
\bibcite{ponomareva_2021_grasplook}{5}
\bibcite{wonsick_2021_telemanipulation}{6}
