\relax 
\FN@pp@footnotehinttrue 
\@writefile{toc}{\contentsline {chapter}{\numberline {A}Extra}{6}{appendix.A}}
\@writefile{lof}{\addvspace {10\p@ }}
\@writefile{lot}{\addvspace {10\p@ }}
\newlabel{chap:appendixA}{{A}{6}{Extra\relax }{appendix.A}{}}
\FN@pp@footnotehinttrue 
\@setckpt{Appendix1/appendix1}{
\setcounter{page}{7}
\setcounter{equation}{0}
\setcounter{enumi}{2}
\setcounter{enumii}{0}
\setcounter{enumiii}{0}
\setcounter{enumiv}{0}
\setcounter{footnote}{0}
\setcounter{mpfootnote}{0}
\setcounter{part}{0}
\setcounter{chapter}{1}
\setcounter{section}{0}
\setcounter{subsection}{0}
\setcounter{subsubsection}{0}
\setcounter{paragraph}{0}
\setcounter{subparagraph}{0}
\setcounter{figure}{0}
\setcounter{table}{0}
\setcounter{NAT@ctr}{0}
\setcounter{pp@next@reset}{1}
\setcounter{@fnserial}{0}
\setcounter{Item}{2}
\setcounter{Hfootnote}{0}
\setcounter{bookmark@seq@number}{8}
\setcounter{parentequation}{0}
\setcounter{float@type}{8}
\setcounter{algorithm}{1}
\setcounter{ALC@unique}{18}
\setcounter{ALC@line}{18}
\setcounter{ALC@rem}{0}
\setcounter{ALC@depth}{0}
\setcounter{section@level}{1}
}
